…
<!-- -->

    ## ── Attaching packages ─────────────────────────────────────── tidyverse 1.3.2 ──
    ## ✔ ggplot2 3.3.6      ✔ purrr   0.3.4 
    ## ✔ tibble  3.1.8      ✔ dplyr   1.0.10
    ## ✔ tidyr   1.2.1      ✔ stringr 1.4.1 
    ## ✔ readr   2.1.3      ✔ forcats 0.5.2 
    ## ── Conflicts ────────────────────────────────────────── tidyverse_conflicts() ──
    ## ✖ dplyr::filter() masks stats::filter()
    ## ✖ dplyr::lag()    masks stats::lag()
    ## New names:

    ## # A tibble: 51 × 4
    ##     ...1 State                `Male %` `Female %`
    ##    <dbl> <chr>                   <dbl>      <dbl>
    ##  1     1 Alabama                  16.2       11.1
    ##  2     2 Alaska                    7.3        4.3
    ##  3     3 Arizona                  11.3        6  
    ##  4     4 Arkansas                 17.4        9.8
    ##  5     5 California                6.2        3.1
    ##  6     6 Colorado                 10.2        6.1
    ##  7     7 Connecticut              13.2        3.2
    ##  8     8 Delaware                 10.8        7.5
    ##  9     9 District of Columbia     11.5        3.2
    ## 10    10 Florida                  16.9        7.8
    ## # … with 41 more rows
…
